%YAML 1.1
%TAG !u! tag:unity3d.com,2011:
--- !u!1 &7443408887813606051
GameObject:
  m_ObjectHideFlags: 0
  m_CorrespondingSourceObject: {fileID: 0}
  m_PrefabInstance: {fileID: 0}
  m_PrefabAsset: {fileID: 0}
  serializedVersion: 6
  m_Component:
  - component: {fileID: 7443408887813606049}
  - component: {fileID: 7443408887813606050}
  - component: {fileID: 934570884}
  - component: {fileID: 7443408887813606060}
  - component: {fileID: 341290405}
  m_Layer: 0
  m_Name: NetworkManager
  m_TagString: Untagged
  m_Icon: {fileID: 0}
  m_NavMeshLayer: 0
  m_StaticEditorFlags: 0
  m_IsActive: 1
--- !u!4 &7443408887813606049
Transform:
  m_ObjectHideFlags: 0
  m_CorrespondingSourceObject: {fileID: 0}
  m_PrefabInstance: {fileID: 0}
  m_PrefabAsset: {fileID: 0}
  m_GameObject: {fileID: 7443408887813606051}
  m_LocalRotation: {x: 0, y: 0, z: 0, w: 1}
  m_LocalPosition: {x: 0, y: 0, z: 0}
  m_LocalScale: {x: 1, y: 1, z: 1}
  m_ConstrainProportionsScale: 0
  m_Children:
  - {fileID: 4393252310584637084}
  m_Father: {fileID: 0}
  m_RootOrder: 0
  m_LocalEulerAnglesHint: {x: 0, y: 0, z: 0}
--- !u!114 &7443408887813606050
MonoBehaviour:
  m_ObjectHideFlags: 0
  m_CorrespondingSourceObject: {fileID: 0}
  m_PrefabInstance: {fileID: 0}
  m_PrefabAsset: {fileID: 0}
  m_GameObject: {fileID: 7443408887813606051}
  m_Enabled: 1
  m_EditorHideFlags: 0
  m_Script: {fileID: 11500000, guid: d2c95dfde7d73b54dbbdc23155d35d36, type: 3}
  m_Name: 
  m_EditorClassIdentifier: 
  _refreshDefaultPrefabs: 0
  _runInBackground: 1
  _dontDestroyOnLoad: 1
  _objectPool: {fileID: 0}
  _persistence: 0
  _logging: {fileID: 0}
  _spawnablePrefabs: {fileID: 11400000, guid: eb9fca99f6d982146a445a9a02bee69e, type: 2}
--- !u!114 &934570884
MonoBehaviour:
  m_ObjectHideFlags: 0
  m_CorrespondingSourceObject: {fileID: 0}
  m_PrefabInstance: {fileID: 0}
  m_PrefabAsset: {fileID: 0}
  m_GameObject: {fileID: 7443408887813606051}
  m_Enabled: 1
  m_EditorHideFlags: 0
  m_Script: {fileID: 11500000, guid: 7d331f979d46e8e4a9fc90070c596d44, type: 3}
  m_Name: 
  m_EditorClassIdentifier: 
  _useNetworkLod: 0
  _levelOfDetailDistances: []
  _updateHostVisibility: 1
  _defaultConditions:
  - {fileID: 11400000, guid: 2033f54fd2794464bae08fa5a55c8996, type: 2}
--- !u!114 &7443408887813606060
MonoBehaviour:
  m_ObjectHideFlags: 0
  m_CorrespondingSourceObject: {fileID: 0}
  m_PrefabInstance: {fileID: 0}
  m_PrefabAsset: {fileID: 0}
  m_GameObject: {fileID: 7443408887813606051}
  m_Enabled: 1
  m_EditorHideFlags: 0
  m_Script: {fileID: 11500000, guid: 211a9f6ec51ddc14f908f5acc0cd0423, type: 3}
  m_Name: 
  m_EditorClassIdentifier: 
  _playerPrefab: {fileID: 6755864391154620716, guid: 147a8920338adce43bcb738516ceb05a, type: 3}
  _addToDefaultScene: 1
  Spawns: []
--- !u!114 &341290405
MonoBehaviour:
  m_ObjectHideFlags: 0
  m_CorrespondingSourceObject: {fileID: 0}
  m_PrefabInstance: {fileID: 0}
  m_PrefabAsset: {fileID: 0}
  m_GameObject: {fileID: 7443408887813606051}
  m_Enabled: 1
  m_EditorHideFlags: 0
  m_Script: {fileID: 11500000, guid: 3fdaae44044276a49a52229c1597e33b, type: 3}
  m_Name: 
  m_EditorClassIdentifier: 
  _updateOrder: 0
  _timingType: 0
  _allowTickDropping: 0
  _maximumFrameTicks: 2
  _tickRate: 30
  _pingInterval: 1
  _timingInterval: 2
  _physicsMode: 1
--- !u!1001 &2130063410
PrefabInstance:
  m_ObjectHideFlags: 0
  serializedVersion: 2
  m_Modification:
    m_TransformParent: {fileID: 7443408887813606049}
    m_Modifications:
    - target: {fileID: 4393252310969058990, guid: 0570b6f7f713dc44a90463654bbcd8d0, type: 3}
      propertyPath: m_Pivot.x
      value: 0
      objectReference: {fileID: 0}
    - target: {fileID: 4393252310969058990, guid: 0570b6f7f713dc44a90463654bbcd8d0, type: 3}
      propertyPath: m_Pivot.y
      value: 0
      objectReference: {fileID: 0}
    - target: {fileID: 4393252310969058990, guid: 0570b6f7f713dc44a90463654bbcd8d0, type: 3}
      propertyPath: m_RootOrder
      value: 0
      objectReference: {fileID: 0}
    - target: {fileID: 4393252310969058990, guid: 0570b6f7f713dc44a90463654bbcd8d0, type: 3}
      propertyPath: m_AnchorMax.x
      value: 0
      objectReference: {fileID: 0}
    - target: {fileID: 4393252310969058990, guid: 0570b6f7f713dc44a90463654bbcd8d0, type: 3}
      propertyPath: m_AnchorMax.y
      value: 0
      objectReference: {fileID: 0}
    - target: {fileID: 4393252310969058990, guid: 0570b6f7f713dc44a90463654bbcd8d0, type: 3}
      propertyPath: m_AnchorMin.x
      value: 0
      objectReference: {fileID: 0}
    - target: {fileID: 4393252310969058990, guid: 0570b6f7f713dc44a90463654bbcd8d0, type: 3}
      propertyPath: m_AnchorMin.y
      value: 0
      objectReference: {fileID: 0}
    - target: {fileID: 4393252310969058990, guid: 0570b6f7f713dc44a90463654bbcd8d0, type: 3}
      propertyPath: m_SizeDelta.x
      value: 0
      objectReference: {fileID: 0}
    - target: {fileID: 4393252310969058990, guid: 0570b6f7f713dc44a90463654bbcd8d0, type: 3}
      propertyPath: m_SizeDelta.y
      value: 0
      objectReference: {fileID: 0}
    - target: {fileID: 4393252310969058990, guid: 0570b6f7f713dc44a90463654bbcd8d0, type: 3}
      propertyPath: m_LocalPosition.x
      value: 0
      objectReference: {fileID: 0}
    - target: {fileID: 4393252310969058990, guid: 0570b6f7f713dc44a90463654bbcd8d0, type: 3}
      propertyPath: m_LocalPosition.y
      value: 0
      objectReference: {fileID: 0}
    - target: {fileID: 4393252310969058990, guid: 0570b6f7f713dc44a90463654bbcd8d0, type: 3}
      propertyPath: m_LocalPosition.z
      value: 0
      objectReference: {fileID: 0}
    - target: {fileID: 4393252310969058990, guid: 0570b6f7f713dc44a90463654bbcd8d0, type: 3}
      propertyPath: m_LocalRotation.w
      value: 1
      objectReference: {fileID: 0}
    - target: {fileID: 4393252310969058990, guid: 0570b6f7f713dc44a90463654bbcd8d0, type: 3}
      propertyPath: m_LocalRotation.x
      value: 0
      objectReference: {fileID: 0}
    - target: {fileID: 4393252310969058990, guid: 0570b6f7f713dc44a90463654bbcd8d0, type: 3}
      propertyPath: m_LocalRotation.y
      value: 0
      objectReference: {fileID: 0}
    - target: {fileID: 4393252310969058990, guid: 0570b6f7f713dc44a90463654bbcd8d0, type: 3}
      propertyPath: m_LocalRotation.z
      value: 0
      objectReference: {fileID: 0}
    - target: {fileID: 4393252310969058990, guid: 0570b6f7f713dc44a90463654bbcd8d0, type: 3}
      propertyPath: m_AnchoredPosition.x
      value: 0
      objectReference: {fileID: 0}
    - target: {fileID: 4393252310969058990, guid: 0570b6f7f713dc44a90463654bbcd8d0, type: 3}
      propertyPath: m_AnchoredPosition.y
      value: 0
      objectReference: {fileID: 0}
    - target: {fileID: 4393252310969058990, guid: 0570b6f7f713dc44a90463654bbcd8d0, type: 3}
      propertyPath: m_LocalEulerAnglesHint.x
      value: 0
      objectReference: {fileID: 0}
    - target: {fileID: 4393252310969058990, guid: 0570b6f7f713dc44a90463654bbcd8d0, type: 3}
      propertyPath: m_LocalEulerAnglesHint.y
      value: 0
      objectReference: {fileID: 0}
    - target: {fileID: 4393252310969058990, guid: 0570b6f7f713dc44a90463654bbcd8d0, type: 3}
      propertyPath: m_LocalEulerAnglesHint.z
      value: 0
      objectReference: {fileID: 0}
    - target: {fileID: 4393252310969058995, guid: 0570b6f7f713dc44a90463654bbcd8d0, type: 3}
      propertyPath: m_Name
      value: NetworkHudCanvas
      objectReference: {fileID: 0}
    m_RemovedComponents: []
  m_SourcePrefab: {fileID: 100100000, guid: 0570b6f7f713dc44a90463654bbcd8d0, type: 3}
--- !u!224 &4393252310584637084 stripped
RectTransform:
  m_CorrespondingSourceObject: {fileID: 4393252310969058990, guid: 0570b6f7f713dc44a90463654bbcd8d0, type: 3}
  m_PrefabInstance: {fileID: 2130063410}
  m_PrefabAsset: {fileID: 0}
